{
  "version": "1.0",
  "defaultProvider": "cdnjs",
  "libraries": [
    {
      "library": "jquery@3.4.1",
      "destination": "lib/jquery/"
    },
    {
      "library": "twitter-bootstrap@3.4.1",
      "destination": "lib/twitter-bootstrap/"
    },
    {
      "library": "admin-lte@2.4.18",
      "destination": "lib/admin-lte/"
    },
    {
      "library": "ionicons@4.5.6",
      "destination": "lib/ionicons/"
    },
    {
      "library": "font-awesome@4.7.0",
      "destination": "lib/font-awesome/"
    },
    {
      "provider": "cdnjs",
      "library": "1000hz-bootstrap-validator@0.11.9",
      "destination": "lib/1000hz-bootstrap-validator/"
    }
  ]
}